online_mis Max:1 Ind:1 Nds:68307/540486 (12.6381%) Wght:68307/540486 (12.6381%)
redumis Max:1 Ind:1 Nds:68307/540486 (12.6381%) Wght:68307/540486 (12.6381%)
weighted_branch_reduce Max:1 Ind:1 Nds:68307/540486 (12.6381%) Wght:68307/540486 (12.6381%)
weighted_local_search Max:1 Ind:1 Nds:68307/540486 (12.6381%) Wght:68307/540486 (12.6381%)
online_mis Max:1 Ind:1 Nds:68307/540486 (12.6381%) Wght:68307/540486 (12.6381%)
redumis Max:1 Ind:1 Nds:68307/540486 (12.6381%) Wght:68307/540486 (12.6381%)
weighted_branch_reduce Max:1 Ind:1 Nds:68307/540486 (12.6381%) Wght:68307/540486 (12.6381%)
weighted_local_search Max:1 Ind:1 Nds:68307/540486 (12.6381%) Wght:68307/540486 (12.6381%)
