online_mis Max:1 Ind:1 Nds:10332/32768 (31.5308%) Wght:10332/32768 (31.5308%) dt:60.00243
redumis Max:1 Ind:1 Nds:10333/32768 (31.5338%) Wght:10333/32768 (31.5338%) dt:1.88695
weighted_branch_reduce Max:1 Ind:1 Nds:9562/32768 (29.1809%) Wght:9562/32768 (29.1809%) dt:20.28276
weighted_local_search Max:1 Ind:1 Nds:10324/32768 (31.5063%) Wght:10324/32768 (31.5063%) dt:8.6063
