redumis Max:1 Ind:1 Nds:82537/262144 (31.4854%) Wght:82537/262144 (31.4854%) dt:20.57522
weighted_branch_reduce Max:1 Ind:1 Nds:75062/262144 (28.6339%) Wght:75062/262144 (28.6339%) dt:55.3195
weighted_local_search Max:1 Ind:1 Nds:82133/262144 (31.3313%) Wght:82133/262144 (31.3313%) dt:60.2558
online_mis Max:1 Ind:1 Nds:82549/262144 (31.4899%) Wght:82549/262144 (31.4899%) dt:60.025
